{
   "id": 102,
   "caseNumber": "20211004_102",
   "caseType": "Harassment",
   "title": "Relentlessly-stalked",
   "details": "<p>Enjoys running on desert highways. Complains of constant harassment by coyote with strange contrapments.</p>",
   "created": "2021-10-04T11:51:03.000Z",
   "creator": "arkcase-admin@arkcase.org",
   "personAssociations": [
      {
         "person": {
			"id": 104,
            "givenName": "Road",
            "middleName": "",
            "familyName": "Runner",
            "contactMethods": [
               {
                  "type": "email",
                  "subType": "Personal",
                  "value": "r.runner@nomail.com"
               }
            ],
            "identifications": [
               {
                  "identificationType": "passport",
                  "identificationNumber": "Z234567890A"
               }
            ]
         }
      }
   ]
}
